# Blender MTL File: 'None'
# Material Count: 14

newmtl None
Ns 0.000000
Ka 0.000000 0.000000 0.000000
Kd 0.640000 0.640000 0.640000
Ks 0.800000 0.800000 0.800000
Ni 1.000000
d 1.000000
illum 2
map_Kd Texture\4.jpg

newmtl None_00_MyCust_1b.jpg
Ns 0.000000
Ka 0.000000 0.000000 0.000000
Kd 0.512000 0.512000 0.512000
Ks 0.800000 0.800000 0.800000
Ni 1.000000
d 1.000000
illum 2
map_Kd Texture\9.jpg

newmtl None_00_TaME_Bronze02.jpg
Ns 0.000000
Ka 0.000000 0.000000 0.000000
Kd 0.512000 0.512000 0.512000
Ks 0.800000 0.800000 0.800000
Ni 1.000000
d 1.000000
illum 2
map_Kd Texture\7.jpg

newmtl None_1.jpg
Ns 0.000000
Ka 0.000000 0.000000 0.000000
Kd 0.640000 0.640000 0.640000
Ks 0.800000 0.800000 0.800000
Ni 1.000000
d 1.000000
illum 2
map_Kd Texture\3.jpg

newmtl None_2.jpg
Ns 0.000000
Ka 0.000000 0.000000 0.000000
Kd 0.512000 0.512000 0.512000
Ks 0.800000 0.800000 0.800000
Ni 1.000000
d 1.000000
illum 2
map_Kd Texture\8.jpg

newmtl None_5504552.jpg
Ns 0.000000
Ka 0.000000 0.000000 0.000000
Kd 0.512000 0.512000 0.512000
Ks 0.800000 0.800000 0.800000
Ni 1.000000
d 1.000000
illum 2
map_Kd Texture\11.jpg

newmtl None_Concrete_Aggregate_Small.jpg
Ns 0.000000
Ka 0.000000 0.000000 0.000000
Kd 0.512000 0.512000 0.512000
Ks 0.800000 0.800000 0.800000
Ni 1.000000
d 1.000000
illum 2
map_Kd Texture\11.jpg

newmtl None_H1509_ST24.jpg
Ns 0.000000
Ka 0.000000 0.000000 0.000000
Kd 0.512000 0.512000 0.512000
Ks 0.800000 0.800000 0.800000
Ni 1.000000
d 1.000000
illum 2
map_Kd Texture\6.jpg

newmtl None_Marmol_Florentino_Arena.jpg
Ns 0.000000
Ka 0.000000 0.000000 0.000000
Kd 0.512000 0.512000 0.512000
Ks 0.800000 0.800000 0.800000
Ni 1.000000
d 1.000000
illum 2
map_Kd Texture\5.jpg

newmtl None_Metal_Aluminum_Anodized.jpg
Ns 0.000000
Ka 0.000000 0.000000 0.000000
Kd 0.512000 0.512000 0.512000
Ks 0.800000 0.800000 0.800000
Ni 1.000000
d 1.000000
illum 2
map_Kd Texture\12.jpg

newmtl None_NONE
Ns 0.000000
Ka 0.000000 0.000000 0.000000
Kd 0.512000 0.512000 0.512000
Ks 0.800000 0.800000 0.800000
Ni 1.000000
d 1.000000
illum 2
map_Kd Texture\2.jpg

newmtl None_SUC_Floor_022.jpg
Ns 0.000000
Ka 0.000000 0.000000 0.000000
Kd 0.512000 0.512000 0.512000
Ks 0.800000 0.800000 0.800000
Ni 1.000000
d 1.000000
illum 2
map_Kd Texture\13.jpg

newmtl None_Texture_Stucco17.jpg
Ns 0.000000
Ka 0.000000 0.000000 0.000000
Kd 0.512000 0.512000 0.512000
Ks 0.800000 0.800000 0.800000
Ni 1.000000
d 1.000000
illum 2
map_Kd Texture\1.jpg

newmtl None_Tile_WellingTon_17.JPG
Ns 0.000000
Ka 0.000000 0.000000 0.000000
Kd 0.512000 0.512000 0.512000
Ks 0.800000 0.800000 0.800000
Ni 1.000000
d 1.000000
illum 2
map_Kd Texture\10.jpg
