# Blender MTL File: 'None'
# Material Count: 4

newmtl None
Ns 0
Ka 0.000000 0.000000 0.000000
Kd 0.8 0.8 0.8
Ks 0.8 0.8 0.8
d 1
illum 2
map_Kd sand.jpg

newmtl None_palm_bark.png.003
Ns 0
Ka 0.000000 0.000000 0.000000
Kd 0.8 0.8 0.8
Ks 0.8 0.8 0.8
d 1
illum 2
map_Kd palm_bark.png

newmtl None_palm_leafs.png.003
Ns 0
Ka 0.000000 0.000000 0.000000
Kd 0.8 0.8 0.8
Ks 0.8 0.8 0.8
d 1
illum 2
map_Kd palm leafs.png

newmtl None_palm_leafs.png.004
Ns 0
Ka 0.000000 0.000000 0.000000
Kd 0.8 0.8 0.8
Ks 0.8 0.8 0.8
d 1
illum 2
map_Kd palm leafs.png
