# Blender v2.72 (sub 0) OBJ File: 'pool.blend'
# www.blender.org
mtllib pool_plain.mtl
o Cube.001_Cube
v -1.028540 -1.028540 0.000000
v -1.028540 1.028540 0.000000
v 1.028540 1.028540 0.000000
v 1.028540 -1.028540 0.000000
v -1.028540 -1.028540 1.000000
v -1.028540 1.028540 1.000000
v 1.028540 1.028540 1.000000
v 1.028540 -1.028540 1.000000
v -1.000000 -1.000000 1.000000
v -1.000000 1.000000 1.000000
v 1.000000 1.000000 1.000000
v 1.000000 -1.000000 1.000000
v -1.000000 -1.000000 0.114823
v -1.000000 1.000000 0.114823
v 1.000000 1.000000 0.114823
v 1.000000 -1.000000 0.114823
vt 2.885242 0.106206
vt 2.885242 -1.468970
vt 1.265110 -1.468970
vt -1.885242 0.106206
vt -1.885242 -1.468970
vt -0.265110 -1.468970
vt 1.265110 2.885242
vt 2.885242 2.885242
vt 2.885242 1.265110
vt 2.862764 1.287588
vt 1.287588 1.287588
vt 1.287588 0.106206
vt 1.287588 -1.288103
vt -0.287588 -1.288103
vt -0.265110 2.885242
vt -0.287588 2.862764
vt -0.287588 1.287588
vt -1.885242 -0.265110
vt -1.862764 -0.287588
vt -0.287588 -0.287588
vt 1.265110 -1.885242
vt 1.287588 -1.862764
vt 1.287588 -0.287588
vt -1.862764 1.287588
vt -1.862764 0.106206
vt -1.862764 -1.288103
vt 1.265110 0.106206
vt -0.265110 0.106206
vt 1.265110 1.265110
vt -0.287588 0.106206
vt -0.265110 1.265110
vt -0.265110 -0.265110
vt 1.265110 -0.265110
usemtl Material.002
s off
f 6/1 2/2 1/3
f 7/1 3/2 2/3
f 8/4 4/5 3/6
f 5/4 1/5 4/6
f 2/7 3/8 4/9
f 8/9 12/10 9/11
f 12/12 16/13 13/14
f 7/15 11/16 12/17
f 6/18 10/19 11/20
f 5/21 9/22 10/23
f 15/17 14/24 13/19
f 11/12 15/13 16/14
f 10/25 14/26 15/14
f 9/25 13/26 14/14
f 5/27 6/1 1/3
f 6/27 7/1 2/3
f 7/28 8/4 3/6
f 8/28 5/4 4/6
f 1/29 2/7 4/9
f 5/29 8/9 9/11
f 9/30 12/12 13/14
f 8/31 7/15 12/17
f 7/32 6/18 11/20
f 6/33 5/21 10/23
f 16/20 15/17 13/19
f 12/30 11/12 16/14
f 11/30 10/25 15/14
f 10/30 9/25 14/14
